…
## What is mean total number of steps taken per day?

1. Calculate the total number of steps taken per day


```r
steps_date <- file %>% group_by(date) %>% summarise("steps" = sum(steps, na.rm = TRUE))
print(steps_date)
```

```
## # A tibble: 61 x 2
##    date       steps
##    <date>     <int>
##  1 2012-10-01     0
##  2 2012-10-02   126
##  3 2012-10-03 11352
##  4 2012-10-04 12116
##  5 2012-10-05 13294
##  6 2012-10-06 15420
##  7 2012-10-07 11015
##  8 2012-10-08     0
##  9 2012-10-09 12811
## 10 2012-10-10  9900
## # ... with 51 more rows
```
…
## What is the average daily activity pattern?

1. Make a time series plot of the 5-minute interval (x-axis) and the average number of steps taken, averaged across all days (y-axis)


```r
steps_interval <- file %>% group_by(interval) %>% summarise("steps" = mean(steps, na.rm = TRUE))
print(steps_interval)
```

```
## # A tibble: 288 x 2
##    interval  steps
##       <int>  <dbl>
##  1        0 1.72  
##  2        5 0.340 
##  3       10 0.132 
##  4       15 0.151 
##  5       20 0.0755
##  6       25 2.09  
##  7       30 0.528 
##  8       35 0.868 
##  9       40 0     
## 10       45 1.47  
## # ... with 278 more rows
```
…
4. Make a histogram of the total number of steps taken each day and Calculate and report the mean and median total number of steps taken per day.


```r
steps_date2 <- file2 %>% group_by(date) %>% summarise("steps" = sum(as.numeric(steps)))
print(steps_date2)
```

```
## # A tibble: 61 x 2
##    date        steps
##    <date>      <dbl>
##  1 2012-10-01 10766.
##  2 2012-10-02   126 
##  3 2012-10-03 11352 
##  4 2012-10-04 12116 
##  5 2012-10-05 13294 
##  6 2012-10-06 15420 
##  7 2012-10-07 11015 
##  8 2012-10-08 10766.
##  9 2012-10-09 12811 
## 10 2012-10-10  9900 
## # ... with 51 more rows
```
…
